p001|0.0|22.05.2021. 13:30,3500.0;20.03.2021. 10:20,4500.0;05.02.2021. 10:33,3500.0;02.09.2020. 11:34,82000.0;16.03.2021. 13:50,3500.0;02.09.2020. 11:33,10000.0;03.06.2021. 10:30,3500.0
p002|0.0|22.05.2021. 13:30,3500.0;03.09.2020. 14:31,10000.0;18.03.2021. 09:22,3500.0;03.09.2020. 14:32,82000.0;08.02.2021. 10:44,3500.0
p003|5000.0|20.03.2021. 08:55,3500.0;08.02.2021. 10:55,3500.0;02.09.2020. 15:14,82000.0;22.05.2021. 13:30,3500.0;02.09.2020. 15:13,10000.0
p004|5000.0|04.09.2020. 11:32,95750.0;18.01.2020. 13:30,3500.0;07.09.2019. 10:23,85000.0;07.09.2019. 10:22,9000.0
p005|7000.0|03.09.2019. 14:45,80000.0;02.10.2019. 12:23,3000.0;16.12.2019. 06:30,3000.0;04.04.2020. 10:33,3000.0;16.06.2021. 14:44,4500.0;03.09.2019. 14:44,9000.0;01.06.2020. 15:30,3000.0;03.09.2020. 17:21,105000.0
p006|6000.0|17.06.2021. 13:33,4500.0;05.06.2020. 18:20,3000.0;05.09.2020. 14:11,105000.0;05.10.2019. 08:11,3000.0;03.09.2019. 14:28,80000.0;03.09.2019. 14:27,9000.0;11.04.2020. 11:20,3000.0;18.12.2019. 13:46,3000.0
p007|0.0|11.10.2019. 16:44,3000.0;22.12.2019. 11:00,3000.0;05.09.2019. 16:55,9000.0;06.09.2020. 19:22,105000.0;16.04.2020. 12:23,3000.0;30.06.2020. 10:00,3000.0;05.09.2019. 16:56,80000.0
p008|0.0|20.03.2020. 15:21,4500.0;02.09.2019. 18:19,100000.0;13.10.2019. 15:15,4500.0;04.09.2020. 16:40,122000.0;02.09.2019. 18:18,9000.0;21.12.2019. 10:11,4500.0;10.06.2020. 17:00,4500.0
p009|5000.0|20.03.2020. 13:52,4500.0;11.06.2020. 11:31,4500.0;10.09.2020. 09:30,122000.0;24.12.2019. 10:11,4500.0;18.10.2019. 17:32,4500.0;02.09.2019. 11:25,9000.0;02.09.2019. 11:26,100000.0
p010|11000.0|04.09.2020. 15:16,90000.0;06.09.2020. 13:33,87500.0;20.03.2021. 10:20,4500.0;04.09.2020. 15:15,10000.0
p011|10000.0|07.09.2020. 16:16,10000.0;07.09.2020. 16:17,87500.0
p012|16000.0|01.09.2020. 13:33,95750.0;15.01.2020. 10:33,3500.0;08.09.2019. 18:21,85000.0;08.09.2019. 18:20,9000.0
p013|0.0|25.06.2021. 00:04,10000.0
p014|0.0|25.06.2021. 01:43,10000.0
p015|0.0|25.06.2021. 01:44,10000.0
